integrale af x+y*z
-------------- pseudo-random: -------------
N	= 10000000
result	= 125.208
exact	= 125.209
estimated error	= 0.0231117
actual error	= 0.000991768
integrale af 1/pi^3 * (cos(x)*cos(y)*cos(z))^-1
-------------- pseudo-random: -------------
N	= 10000000
result	= 1.38756
exact	= 1.3932
estimated error	= 0.00323107
actual error	= 0.00564853


Opgave b
integrale af x+y*z
1 8.83933e-07
2 81.6722
3 65.6839
4 77.0725
5 47.7864
6 55.2126
7 89.0348
8 96.7691
9 74.9455
10 65.145
11 61.4057
12 53.2697
13 60.3586
14 64.8475
15 56.9666
16 77.187
17 79.1041
18 72.5694
19 81.2308
20 80.3545
21 56.786
22 59.472
23 57.523
24 49.2878
25 74.0154
26 72.8353
27 86.5879
28 71.7415
29 66.4419
30 50.7141
31 71.8462
32 68.7045
33 59.6324
34 64.6965
35 77.7559
36 69.865
37 88.6394
38 73.4848
39 70.396
40 69.4976
41 70.1405
42 72.2783
43 81.9783
44 79.4381
45 63.1982
46 74.8122
47 81.6916
48 65.7599
49 79.4728
50 73.8163
51 66.1568
52 68.4054
53 65.8615
54 74.0185
55 71.1295
56 58.7799
57 78.5403
58 75.1203
59 66.7343
60 76.8821
61 75.4411
62 80.1498
63 62.9926
64 75.1858
65 61.3565
66 74.7674
67 77.9671
68 65.5543
69 73.9299
70 69.8727
71 79.1905
72 66.3609
73 70.2061
74 72.3852
75 82.3317
76 73.4731
77 63.3383
78 78.3042
79 65.3969
80 74.8822
81 75.2223
82 68.5009
83 73.1478
84 70.3886
85 67.152
86 73.6556
87 61.2411
88 81.1604
89 71.9499
90 76.6526
91 64.0898
92 74.0046
93 64.6079
94 64.5895
95 66.0621
96 73.7726
97 69.0504
98 63.288
99 73.1597
100 77.9669
101 74.4829
102 75.4299
103 75.1031
104 77.8727
105 64.779
106 70.7644
107 73.596
108 78.5545
109 63.9464
110 67.0215
111 72.3697
112 74.7112
113 65.7033
114 74.2281
115 75.5391
116 69.9469
117 78.5902
118 65.3937
119 74.0755
120 72.0532
121 78.8518
122 74.4845
123 69.8584
124 72.0578
125 61.4615
126 82.5508
127 71.7132
128 66.3544
129 79.4678
130 76.547
131 76.7515
132 66.0338
133 63.2389
134 66.2266
135 74.665
136 72.1433
137 71.9944
138 72.2074
139 73.4079
140 74.9046
141 80.7991
142 69.0517
143 75.593
144 71.8787
145 76.046
146 71.4073
147 73.0278
148 66.1092
149 78.9963
150 73.2659
151 68.2138
152 75.387
153 66.703
154 70.4217
155 74.1485
156 70.3736
157 65.6326
158 75.4865
159 88.0481
160 74.8985
161 76.1495
162 71.5661
163 75.583
164 69.7428
165 71.0368
166 71.3674
167 73.038
168 79.4349
169 76.3656
170 70.4378
171 73.6917
172 70.757
173 67.993
174 71.6273
175 70.0979
176 72.5239
177 72.533
178 76.848
179 72.2294
180 64.683
181 71.4471
182 74.6187
183 79.0766
184 68.3459
185 67.3192
186 70.5061
187 70.9257
188 69.7877
189 71.9278
190 74.6909
191 72.24
192 78.5344
193 76.399
194 72.6897
195 76.7425
196 72.8859
197 68.4242
198 77.4146
199 71.1127
200 73.8062
201 70.1694
202 73.8715
203 74.5531
204 73.4055
205 66.7214
206 74.3211
207 72.8961
208 75.9631
209 76.6499
210 73.5403
211 77.3913
212 75.0337
213 73.7951
214 70.3646
215 76.2827
216 62.2382
217 71.3522
218 75.4965
219 72.8265
220 75.6015
221 72.6085
222 73.648
223 73.1189
224 76.7967
225 74.8785
226 74.6182
227 72.3831
228 72.9381
229 72.6588
230 75.8477
231 73.0061
232 75.952
233 77.068
234 76.1185
235 74.7714
236 74.736
237 76.1119
238 74.9067
239 73.4234
240 75.0165
241 78.2073
242 75.0381
243 73.7757
244 70.7196
245 69.0892
246 75.5365
247 68.8173
248 67.4416
249 70.58
250 73.0573
251 78.8638
252 72.9858
253 70.5941
254 71.4162
255 82.2958
256 73.4843
257 69.4834
258 66.6234
259 74.6923
260 78.1465
261 72.0678
262 76.3418
263 73.0546
264 69.546
265 76.1536
266 78.3611
267 76.2319
268 74.1089
269 71.61
270 66.3101
271 68.317
272 75.142
273 71.2641
274 71.3714
275 73.8336
276 74.0037
277 69.2385
278 75.2909
279 72.2253
280 65.1741
281 71.4519
282 67.2068
283 81.1996
284 69.588
285 72.65
286 72.9382
287 66.5709
288 74.595
289 78.066
290 73.1799
291 73.0943
292 75.1612
293 67.4692
294 76.9769
295 74.4299
296 72.46
297 70.1357
298 71.2262
299 78.084
300 74.7123
301 72.4196
302 72.6546
303 74.3139
304 70.1662
305 72.6573
306 70.67
307 72.3787
308 72.785
309 76.1802
310 74.8338
311 69.6557
312 76.3704
313 71.4987
314 76.1725
315 71.7602
316 72.5189
317 70.3156
318 70.1007
319 74.7549
320 74.5161
321 75.1447
322 70.6918
323 68.5463
324 73.4299
325 76.8148
326 71.6979
327 75.9227
328 70.8233
329 76.5044
330 76.5662
331 69.9014
332 72.3059
333 75.1701
334 71.5201
335 78.3636
336 73.109
337 73.9137
338 75.5149
339 76.3895
340 72.122
341 72.9214
342 75.7985
343 68.2723
344 74.6893
345 72.5178
346 72.9611
347 73.8623
348 65.8273
349 73.7126
350 75.3181
351 75.8919
352 74.2397
353 73.9191
354 74.1888
355 71.5644
356 76.0556
357 74.1305
358 73.8431
359 72.1567
360 68.39
361 75.1182
362 74.9587
363 74.0333
364 72.8882
365 74.5853
366 72.0925
367 71.566
368 71.9214
369 73.8069
370 76.8646
371 71.7392
372 72.6458
373 74.0753
374 74.7389
375 71.9477
376 75.3358
377 72.845
378 76.2546
379 69.6646
380 69.8705
381 71.5017
382 77.9588
383 73.4032
384 73.814
385 75.758
386 75.0358
387 72.7289
388 70.6272
389 69.4283
390 72.8144
391 77.0157
392 72.7776
393 76.0634
394 73.5372
395 69.477
396 71.5658
397 69.5552
398 75.7539
399 68.9243
400 65.2695
401 71.4057
402 75.1567
403 75.7791
404 76.9159
405 77.1979
406 73.9937
407 72.5428
408 70.4321
409 75.4925
410 76.6743
411 72.8589
412 73.7016
413 72.3488
414 66.9384
415 76.085
416 71.1384
417 77.635
418 73.8437
419 70.7281
420 72.0688
421 75.7195
422 73.047
423 70.8425
424 70.8992
425 76.7908
426 74.4454
427 75.4866
428 75.4248
429 70.4692
430 71.3032
431 73.902
432 71.668
433 74.1444
434 73.5507
435 70.8241
436 71.6846
437 70.7175
438 74.4134
439 75.7441
440 75.8026
441 76.6874
442 73.8912
443 71.5811
444 74.2538
445 70.3848
446 72.1565
447 73.493
448 71.218
449 74.6544
450 67.5345
451 71.2565
452 73.0818
453 77.0928
454 70.3471
455 72.5472
456 71.519
457 77.2364
458 73.3925
459 68.6583
460 74.5836
461 70.6883
462 74.4225
463 72.7563
464 73.6214
465 75.0875
466 73.4983
467 70.9984
468 74.8185
469 72.5522
470 72.3269
471 73.3674
472 75.6195
473 72.134
474 74.8411
475 72.7364
476 73.6066
477 77.0126
478 74.0068
479 73.5448
480 67.9083
481 73.8534
482 73.5806
483 71.2054
484 74.2347
485 73.4978
486 69.8976
487 73.3668
488 74.5024
489 72.4094
490 71.0723
491 72.205
492 75.0697
493 73.2508
494 72.1371
495 79.1516
496 76.5709
497 70.4365
498 74.2004
499 73.0006
500 73.9328
501 74.1137
502 70.7705
503 68.9837
504 77.4245
505 70.4575
506 73.8337
507 70.454
508 74.8108
509 74.4855
510 71.9172
511 75.4536
512 70.108
513 72.4777
514 78.2197
515 71.5826
516 69.8546
517 74.8481
518 68.4248
519 73.0663
520 73.0124
521 71.6922
522 71.3322
523 72.5054
524 78.1312
525 72.3223
526 70.3433
527 72.6643
528 74.905
529 73.0833
530 72.5414
531 67.671
532 76.5823
533 75.3705
534 75.3408
535 69.192
536 74.7033
537 71.7883
538 71.9288
539 71.1308
540 73.2119
541 73.9729
542 75.3652
543 76.7467
544 74.7296
545 72.7389
546 72.1696
547 76.8285
548 69.4587
549 72.2468
550 73.4311
551 71.5705
552 74.9297
553 71.4446
554 72.1036
555 69.7219
556 73.1991
557 73.4011
558 71.845
559 75.1622
560 74.0115
561 71.4967
562 73.03
563 71.1218
564 77.6508
565 69.1995
566 71.6244
567 71.6418
568 68.2989
569 69.0561
570 71.4749
571 71.2038
572 77.1602
573 70.8089
574 71.4343
575 70.6335
576 68.5539
577 73.0659
578 72.3505
579 72.3521
580 71.9672
581 73.236
582 72.5489
583 73.0827
584 74.7947
585 72.1324
586 74.0351
587 72.2401
588 67.2158
589 74.4853
590 69.784
591 73.3648
592 70.6291
593 73.2576
594 72.9482
595 74.0128
596 70.3257
597 74.2773
598 72.0616
599 70.5939
600 69.0462
601 72.1614
602 74.8965
603 74.652
604 73.1418
605 72.5462
606 76.0178
607 72.2682
608 73.8769
609 74.162
610 73.6906
611 72.7118
612 72.2929
613 73.9044
614 68.824
615 72.9982
616 74.196
617 72.0716
618 74.4805
619 73.7982
620 75.4513
621 69.2615
622 73.389
623 72.8006
624 75.9323
625 73.5924
626 72.4225
627 68.4887
628 74.335
629 72.1291
630 69.6707
631 71.7284
632 73.1718
633 72.5494
634 74.1862
635 75.4725
636 69.6481
637 74.0655
638 73.7657
639 74.512
640 74.5081
641 70.8192
642 68.8626
643 73.8765
644 74.4378
645 70.3214
646 71.9913
647 76.7516
648 68.5881
649 73.8073
650 72.0903
651 74.6816
652 74.7957
653 68.696
654 67.9231
655 72.9332
656 70.817
657 74.098
658 76.2871
659 73.6722
660 75.9952
661 74.2679
662 72.3178
663 74.1357
664 74.8641
665 70.201
666 72.8078
667 72.7995
668 68.8818
669 74.515
670 75.3344
671 72.5028
672 74.6419
673 70.7691
674 70.15
675 74.3485
676 71.5137
677 71.7171
678 70.6328
679 72.6128
680 73.8471
681 74.8502
682 73.1999
683 72.786
684 75.7051
685 70.0605
686 76.6743
687 70.8465
688 71.6403
689 71.3088
690 75.4894
691 69.4921
692 73.0008
693 75.5821
694 75.4701
695 74.8986
696 71.1033
697 73.0645
698 71.5183
699 73.4254
700 76.4582
701 71.7111
702 73.561
703 79.3592
704 70.7092
705 73.0326
706 71.3937
707 71.4471
708 70.8839
709 73.7501
710 72.9061
711 70.5332
712 71.2477
713 75.195
714 75.0145
715 71.7721
716 72.9017
717 72.9434
718 75.4146
719 72.0472
720 75.1493
721 70.8246
722 75.2446
723 73.8672
724 71.9636
725 71.4309
726 71.1306
727 73.3579
728 74.0238
729 70.6379
730 76.1038
731 75.7059
732 69.5306
733 74.3488
734 70.5371
735 73.2604
736 72.1395
737 73.8712
738 71.8624
739 71.2272
740 71.65
741 73.3627
742 69.6094
743 67.5765
744 73.5059
745 74.6205
746 72.3019
747 70.955
748 76.342
749 69.0545
750 74.5475
751 74.4549
752 73.746
753 76.9037
754 75.1547
755 74.7211
756 71.2699
757 71.2345
758 71.9761
759 76.8606
760 75.6466
761 68.6348
762 74.648
763 74.9542
764 70.7693
765 73.6996
766 72.794
767 75.3149
768 71.9881
769 71.3233
770 73.8883
771 72.525
772 75.5754
773 73.1756
774 73.5192
775 71.4297
776 73.4997
777 72.8393
778 71.9088
779 73.3924
780 71.6813
781 74.5356
782 72.1478
783 69.0153
784 75.4577
785 72.7475
786 73.7513
787 75.7178
788 71.4177
789 74.8019
790 74.2383
791 73.7466
792 75.2644
793 72.3585
794 75.6902
795 69.9934
796 71.0615
797 74.3366
798 71.1919
799 73.777
800 71.2367
801 72.2853
802 71.7947
803 72.8444
804 75.0098
805 74.3206
806 74.1214
807 73.9413
808 73.3618
809 73.1116
810 68.2271
811 73.045
812 72.8941
813 74.0316
814 71.3148
815 72.0033
816 72.144
817 71.3903
818 72.1245
819 71.9054
820 73.3934
821 74.4533
822 69.6756
823 70.1393
824 69.753
825 72.9673
826 71.6573
827 74.2655
828 72.94
829 75.1228
830 74.0983
831 75.6413
832 76.1502
833 70.0851
834 71.2986
835 73.3496
836 72.9998
837 74.529
838 72.4291
839 74.3923
840 73.0982
841 73.4552
842 74.1207
843 71.9294
844 75.8587
845 73.6353
846 69.2161
847 74.1239
848 74.8152
849 72.5464
850 73.0284
851 69.239
852 68.2374
853 76.2155
854 74.0456
855 73.7434
856 71.7777
857 72.7965
858 73.2993
859 77.4999
860 73.5959
861 72.5678
862 74.3061
863 70.6531
864 74.3547
865 72.2974
866 73.4851
867 71.7085
868 72.8235
869 72.3242
870 70.0812
871 73.4686
872 72.2075
873 68.9399
874 74.8436
875 70.4189
876 70.3946
877 74.1377
878 74.6655
879 73.1583
880 71.861
881 72.1338
882 70.9859
883 73.3092
884 73.066
885 74.2226
886 73.4185
887 74.8031
888 72.8204
889 73.5408
890 73.6267
891 73.146
892 72.5528
893 74.22
894 74.7273
895 72.2672
896 76.9895
897 73.6175
898 71.8243
899 73.6562
900 75.3626
901 74.0065
902 73.8409
903 72.5
904 73.8797
905 72.7665
906 75.0973
907 75.602
908 73.9624
909 73.6243
910 75.2041
911 71.8978
912 76.1829
913 71.5197
914 70.2681
915 74.6997
916 74.6199
917 74.4472
918 73.4619
919 75.2973
920 72.5315
921 73.2448
922 71.9344
923 73.7729
924 74.1523
925 72.1309
926 68.1897
927 72.9821
928 74.2206
929 73.0714
930 73.352
931 72.2393
932 73.8766
933 74.6827
934 72.5574
935 73.0095
936 71.6366
937 74.6076
938 72.0751
939 74.1401
940 72.0998
941 74.7468
942 73.3705
943 73.8485
944 70.1341
945 74.0839
946 71.3604
947 72.5335
948 75.9244
949 72.7032
950 73.5446
951 72.4412
952 73.2963
953 72.1123
954 71.3344
955 72.0503
956 72.55
957 72.4001
958 75.3327
959 72.6569
960 74.8808
961 72.9274
962 70.4461
963 72.4476
964 71.8884
965 72.5718
966 74.1559
967 73.7469
968 73.6244
969 73.0718
970 72.2607
971 71.415
972 72.8449
973 74.2199
974 74.0739
975 72.6135
976 71.2388
977 72.9544
978 71.6071
979 70.4726
980 73.216
981 72.9315
982 72.969
983 74.5425
984 73.8168
985 75.3038
986 74.5269
987 72.7423
988 72.2473
989 73.7896
990 73.316
991 73.3778
992 72.9664
993 77.142
994 72.7911
995 71.3143
996 70.6427
997 71.4709
998 75.2941
999 74.371
