0.1 -15.5 1.04
1.33 0.32 0.594
2.55 2.45 0.983
3.78 2.75 0.998
5 2.27 1.11
6.22 1.35 0.398
7.45 0.157 0.535
8.68 -1.23 0.968
9.9 -2.75 0.478


0.0455556 -20.9267 -22.2291 -19.6244
0.154444 -12.5283 -13.3159 -11.7407
0.263333 -8.98108 -9.54369 -8.41847
0.372222 -6.7574 -7.17409 -6.34071
0.481111 -5.16516 -5.47366 -4.85667
0.59 -3.94407 -4.16654 -3.7216
0.698889 -2.96758 -3.11863 -2.81652
0.807778 -2.16453 -2.25454 -2.07453
0.916667 -1.49093 -1.52761 -1.45424
1.02556 -0.917624 -0.906984 -0.928263
1.13444 -0.424342 -0.371155 -0.477529
1.24333 0.00361109 0.0954423 -0.0882202
1.35222 0.377219 0.504449 0.24999
1.46111 0.70491 0.864795 0.545026
1.57 0.993291 1.18348 0.8031
1.67889 1.24764 1.4661 1.02917
1.78778 1.47223 1.71719 1.22727
1.89667 1.67059 1.94048 1.4007
2.00556 1.84565 2.13908 1.55223
2.11444 1.99988 2.3156 1.68416
2.22333 2.13535 2.47225 1.79846
2.33222 2.25388 2.61094 1.89683
2.44111 2.35701 2.7333 1.98072
2.55 2.44608 2.84077 2.05138
2.65889 2.52226 2.93459 2.10994
2.76778 2.5866 3.01585 2.15736
2.87667 2.64001 3.08553 2.19449
2.98556 2.6833 3.14448 2.22211
3.09444 2.71719 3.19347 2.2409
3.20333 2.74233 3.2332 2.25146
3.31222 2.75932 3.26428 2.25435
3.42111 2.76867 3.28727 2.25007
3.53 2.77087 3.30268 2.23906
3.63889 2.76635 3.31097 2.22173
3.74778 2.75551 3.31256 2.19845
3.85667 2.7387 3.30783 2.16957
3.96556 2.71627 3.29714 2.1354
4.07444 2.68851 3.2808 2.09622
4.18333 2.65571 3.25912 2.0523
4.29222 2.61813 3.23238 2.00388
4.40111 2.576 3.20081 1.95119
4.51 2.52955 3.16467 1.89444
4.61889 2.47899 3.12416 1.83382
4.72778 2.4245 3.0795 1.7695
4.83667 2.36627 3.03087 1.70167
4.94556 2.30446 2.97844 1.63047
5.05444 2.23922 2.92239 1.55605
5.16333 2.17071 2.86287 1.47856
5.27222 2.09906 2.80002 1.39811
5.38111 2.0244 2.73397 1.31483
5.49 1.94685 2.66487 1.22883
5.59889 1.86652 2.59282 1.14022
5.70778 1.78352 2.51794 1.04909
5.81667 1.69795 2.44034 0.955557
5.92556 1.60991 2.36012 0.859694
6.03444 1.51948 2.27737 0.761589
6.14333 1.42675 2.19218 0.661324
6.25222 1.33181 2.10465 0.558972
6.36111 1.23473 2.01484 0.454608
6.47 1.13557 1.92285 0.348298
6.57889 1.03442 1.82873 0.240109
6.68778 0.931334 1.73257 0.130101
6.79667 0.826376 1.63442 0.0183335
6.90556 0.719607 1.53435 -0.0951375
7.01444 0.611082 1.43242 -0.210259
7.12333 0.500856 1.32869 -0.32698
7.23222 0.388981 1.22321 -0.445251
7.34111 0.275505 1.11604 -0.565028
7.45 0.160477 1.00722 -0.686264
7.55889 0.0439406 0.8968 -0.808919
7.66778 -0.0740607 0.784829 -0.932951
7.77667 -0.193486 0.67135 -1.05832
7.88556 -0.314294 0.556404 -1.18499
7.99444 -0.436449 0.440032 -1.31293
8.10333 -0.559913 0.322272 -1.4421
8.21222 -0.684652 0.203161 -1.57247
8.32111 -0.810632 0.0827347 -1.704
8.43 -0.937821 -0.0389722 -1.83667
8.53889 -1.06619 -0.161927 -1.97045
8.64778 -1.1957 -0.286099 -2.1053
8.75667 -1.32633 -0.411456 -2.24121
8.86556 -1.45806 -0.53797 -2.37815
8.97444 -1.59085 -0.665613 -2.51609
9.08333 -1.72468 -0.794357 -2.655
9.19222 -1.85952 -0.924176 -2.79487
9.30111 -1.99536 -1.05504 -2.93567
9.41 -2.13216 -1.18694 -3.07738
9.51889 -2.2699 -1.31983 -3.21997
9.62778 -2.40857 -1.45371 -3.36344
9.73667 -2.54815 -1.58854 -3.50775
9.84556 -2.6886 -1.7243 -3.6529
9.95444 -2.82992 -1.86099 -3.79886


0.0455556 -20.9267 -20.4285 -21.4249
0.154444 -12.5283 -12.0301 -13.0265
0.263333 -8.98108 -8.48291 -9.47926
0.372222 -6.7574 -6.25922 -7.25557
0.481111 -5.16516 -4.66699 -5.66334
0.59 -3.94407 -3.44589 -4.44224
0.698889 -2.96758 -2.4694 -3.46575
0.807778 -2.16453 -1.66636 -2.66271
0.916667 -1.49093 -0.99275 -1.9891
1.02556 -0.917624 -0.419447 -1.4158
1.13444 -0.424342 0.0738344 -0.922518
1.24333 0.00361109 0.501787 -0.494565
1.35222 0.377219 0.875396 -0.120957
1.46111 0.70491 1.20309 0.206734
1.57 0.993291 1.49147 0.495115
1.67889 1.24764 1.74581 0.749462
1.78778 1.47223 1.97041 0.974056
1.89667 1.67059 2.16877 1.17242
2.00556 1.84565 2.34383 1.34748
2.11444 1.99988 2.49805 1.5017
2.22333 2.13535 2.63353 1.63718
2.33222 2.25388 2.75206 1.75571
2.44111 2.35701 2.85519 1.85883
2.55 2.44608 2.94425 1.9479
2.65889 2.52226 3.02044 2.02409
2.76778 2.5866 3.08478 2.08843
2.87667 2.64001 3.13819 2.14183
2.98556 2.6833 3.18147 2.18512
3.09444 2.71719 3.21536 2.21901
3.20333 2.74233 3.24051 2.24416
3.31222 2.75932 3.25749 2.26114
3.42111 2.76867 3.26685 2.27049
3.53 2.77087 3.26905 2.27269
3.63889 2.76635 3.26452 2.26817
3.74778 2.75551 3.25368 2.25733
3.85667 2.7387 3.23688 2.24052
3.96556 2.71627 3.21445 2.21809
4.07444 2.68851 3.18669 2.19034
4.18333 2.65571 3.15389 2.15754
4.29222 2.61813 3.11631 2.11995
4.40111 2.576 3.07418 2.07783
4.51 2.52955 3.02773 2.03138
4.61889 2.47899 2.97717 1.98081
4.72778 2.4245 2.92268 1.92633
4.83667 2.36627 2.86444 1.86809
4.94556 2.30446 2.80263 1.80628
5.05444 2.23922 2.7374 1.74105
5.16333 2.17071 2.66889 1.67254
5.27222 2.09906 2.59724 1.60089
5.38111 2.0244 2.52258 1.52622
5.49 1.94685 2.44502 1.44867
5.59889 1.86652 2.36469 1.36834
5.70778 1.78352 2.28169 1.28534
5.81667 1.69795 2.19612 1.19977
5.92556 1.60991 2.10808 1.11173
6.03444 1.51948 2.01766 1.0213
6.14333 1.42675 1.92493 0.928577
6.25222 1.33181 1.82999 0.833634
6.36111 1.23473 1.7329 0.736549
6.47 1.13557 1.63375 0.637396
6.57889 1.03442 1.5326 0.536244
6.68778 0.931334 1.42951 0.433157
6.79667 0.826376 1.32455 0.3282
6.90556 0.719607 1.21778 0.22143
7.01444 0.611082 1.10926 0.112905
7.12333 0.500856 0.999032 0.00267972
7.23222 0.388981 0.887157 -0.109196
7.34111 0.275505 0.773682 -0.222671
7.45 0.160477 0.658653 -0.337699
7.55889 0.0439406 0.542117 -0.454236
7.66778 -0.0740607 0.424116 -0.572237
7.77667 -0.193486 0.304691 -0.691662
7.88556 -0.314294 0.183882 -0.812471
7.99444 -0.436449 0.0617274 -0.934625
8.10333 -0.559913 -0.0617369 -1.05809
8.21222 -0.684652 -0.186476 -1.18283
8.32111 -0.810632 -0.312456 -1.30881
8.43 -0.937821 -0.439644 -1.436
8.53889 -1.06619 -0.568011 -1.56436
8.64778 -1.1957 -0.697525 -1.69388
8.75667 -1.32633 -0.828158 -1.82451
8.86556 -1.45806 -0.959883 -1.95624
8.97444 -1.59085 -1.09267 -2.08903
9.08333 -1.72468 -1.2265 -2.22285
9.19222 -1.85952 -1.36135 -2.3577
9.30111 -1.99536 -1.49718 -2.49353
9.41 -2.13216 -1.63398 -2.63033
9.51889 -2.2699 -1.77173 -2.76808
9.62778 -2.40857 -1.9104 -2.90675
9.73667 -2.54815 -2.04997 -3.04632
9.84556 -2.6886 -2.19043 -3.18678
9.95444 -2.82992 -2.33174 -3.3281


0.0455556 -20.9267 -20.9201 -20.9333
0.154444 -12.5283 -12.506 -12.5506
0.263333 -8.98108 -8.94309 -9.01908
0.372222 -6.7574 -6.70369 -6.8111
0.481111 -5.16516 -5.09574 -5.23458
0.59 -3.94407 -3.85894 -4.0292
0.698889 -2.96758 -2.86673 -3.06842
0.807778 -2.16453 -2.04798 -2.28109
0.916667 -1.49093 -1.35866 -1.62319
1.02556 -0.917624 -0.769645 -1.0656
1.13444 -0.424342 -0.260652 -0.588032
1.24333 0.00361109 0.183013 -0.175791
1.35222 0.377219 0.572333 0.182106
1.46111 0.70491 0.915735 0.494085
1.57 0.993291 1.21983 0.766754
1.67889 1.24764 1.48989 1.00539
1.78778 1.47223 1.73019 1.21427
1.89667 1.67059 1.94427 1.39692
2.00556 1.84565 2.13504 1.55627
2.11444 1.99988 2.30497 1.69478
2.22333 2.13535 2.45616 1.81455
2.33222 2.25388 2.5904 1.91736
2.44111 2.35701 2.70924 2.00478
2.55 2.44608 2.81402 2.07814
2.65889 2.52226 2.90592 2.13861
2.76778 2.5866 2.98597 2.18724
2.87667 2.64001 3.05509 2.22493
2.98556 2.6833 3.11408 2.25251
3.09444 2.71719 3.16369 2.27069
3.20333 2.74233 3.20454 2.28012
3.31222 2.75932 3.23724 2.28139
3.42111 2.76867 3.2623 2.27503
3.53 2.77087 3.28022 2.26152
3.63889 2.76635 3.29141 2.24129
3.74778 2.75551 3.29628 2.21474
3.85667 2.7387 3.29518 2.18222
3.96556 2.71627 3.28846 2.14408
4.07444 2.68851 3.27642 2.10061
4.18333 2.65571 3.25933 2.0521
4.29222 2.61813 3.23746 1.9988
4.40111 2.576 3.21104 1.94096
4.51 2.52955 3.18031 1.8788
4.61889 2.47899 3.14545 1.81253
4.72778 2.4245 3.10668 1.74233
4.83667 2.36627 3.06416 1.66838
4.94556 2.30446 3.01806 1.59086
5.05444 2.23922 2.96853 1.50991
5.16333 2.17071 2.91573 1.42569
5.27222 2.09906 2.8598 1.33833
5.38111 2.0244 2.80084 1.24795
5.49 1.94685 2.739 1.15469
5.59889 1.86652 2.67439 1.05865
5.70778 1.78352 2.6071 0.959938
5.81667 1.69795 2.53724 0.858657
5.92556 1.60991 2.46491 0.754902
6.03444 1.51948 2.39019 0.648763
6.14333 1.42675 2.31318 0.540326
6.25222 1.33181 2.23395 0.429671
6.36111 1.23473 2.15258 0.316875
6.47 1.13557 2.06913 0.202011
6.57889 1.03442 1.98369 0.0851464
6.68778 0.931334 1.89632 -0.0336516
6.79667 0.826376 1.80707 -0.154321
6.90556 0.719607 1.71602 -0.276802
7.01444 0.611082 1.6232 -0.401038
7.12333 0.500856 1.52869 -0.526976
7.23222 0.388981 1.43252 -0.654563
7.34111 0.275505 1.33476 -0.78375
7.45 0.160477 1.23544 -0.91449
7.55889 0.0439406 1.13462 -1.04674
7.66778 -0.0740607 1.03233 -1.18045
7.77667 -0.193486 0.928616 -1.31559
7.88556 -0.314294 0.823519 -1.45211
7.99444 -0.436449 0.717076 -1.58997
8.10333 -0.559913 0.609324 -1.72915
8.21222 -0.684652 0.500296 -1.8696
8.32111 -0.810632 0.390028 -2.01129
8.43 -0.937821 0.278551 -2.15419
8.53889 -1.06619 0.165897 -2.29827
8.64778 -1.1957 0.052094 -2.4435
8.75667 -1.32633 -0.0628278 -2.58984
8.86556 -1.45806 -0.178841 -2.73728
8.97444 -1.59085 -0.295919 -2.88578
9.08333 -1.72468 -0.414036 -3.03532
9.19222 -1.85952 -0.533168 -3.18588
9.30111 -1.99536 -0.65329 -3.33742
9.41 -2.13216 -0.774379 -3.48993
9.51889 -2.2699 -0.896414 -3.64339
9.62778 -2.40857 -1.01937 -3.79777
9.73667 -2.54815 -1.14323 -3.95306
9.84556 -2.6886 -1.26798 -4.10923
9.95444 -2.82992 -1.39359 -4.26626


