<?xml version="1.0" encoding="utf-8"  standalone="no"?>
<!DOCTYPE svg PUBLIC "-//W3C//DTD SVG 1.1//EN"
 "http://www.w3.org/Graphics/SVG/1.1/DTD/svg11.dtd">
<svg 
 width="600" height="480"
 viewBox="0 0 600 480"
 xmlns="http://www.w3.org/2000/svg"
 xmlns:xlink="http://www.w3.org/1999/xlink"
>

<title>Gnuplot</title>
<desc>Produced by GNUPLOT 5.0 patchlevel 3 </desc>

<g id="gnuplot_canvas">

<rect x="0" y="0" width="600" height="480" fill="#ffffff"/>
<defs>

	<circle id='gpDot' r='0.5' stroke-width='0.5'/>
	<path id='gpPt0' stroke-width='0.222' stroke='currentColor' d='M-1,0 h2 M0,-1 v2'/>
	<path id='gpPt1' stroke-width='0.222' stroke='currentColor' d='M-1,-1 L1,1 M1,-1 L-1,1'/>
	<path id='gpPt2' stroke-width='0.222' stroke='currentColor' d='M-1,0 L1,0 M0,-1 L0,1 M-1,-1 L1,1 M-1,1 L1,-1'/>
	<rect id='gpPt3' stroke-width='0.222' stroke='currentColor' x='-1' y='-1' width='2' height='2'/>
	<rect id='gpPt4' stroke-width='0.222' stroke='currentColor' fill='currentColor' x='-1' y='-1' width='2' height='2'/>
	<circle id='gpPt5' stroke-width='0.222' stroke='currentColor' cx='0' cy='0' r='1'/>
	<use xlink:href='#gpPt5' id='gpPt6' fill='currentColor' stroke='none'/>
	<path id='gpPt7' stroke-width='0.222' stroke='currentColor' d='M0,-1.33 L-1.33,0.67 L1.33,0.67 z'/>
	<use xlink:href='#gpPt7' id='gpPt8' fill='currentColor' stroke='none'/>
	<use xlink:href='#gpPt7' id='gpPt9' stroke='currentColor' transform='rotate(180)'/>
	<use xlink:href='#gpPt9' id='gpPt10' fill='currentColor' stroke='none'/>
	<use xlink:href='#gpPt3' id='gpPt11' stroke='currentColor' transform='rotate(45)'/>
	<use xlink:href='#gpPt11' id='gpPt12' fill='currentColor' stroke='none'/>
	<path id='gpPt13' stroke-width='0.222' stroke='currentColor' d='M0,1.330 L1.265,0.411 L0.782,-1.067 L-0.782,-1.076 L-1.265,0.411 z'/>
	<use xlink:href='#gpPt13' id='gpPt14' fill='currentColor' stroke='none'/>
	<filter id='textbox' filterUnits='objectBoundingBox' x='0' y='0' height='1' width='1'>
	  <feFlood flood-color='#FFFFFF' flood-opacity='1' result='bgnd'/>
	  <feComposite in='SourceGraphic' in2='bgnd' operator='atop'/>
	</filter>
	<filter id='greybox' filterUnits='objectBoundingBox' x='0' y='0' height='1' width='1'>
	  <feFlood flood-color='lightgrey' flood-opacity='1' result='grey'/>
	  <feComposite in='SourceGraphic' in2='grey' operator='atop'/>
	</filter>
</defs>
<g fill="none" color="#FFFFFF" stroke="black" stroke-width="1.00" stroke-linecap="butt" stroke-linejoin="miter">
</g>
<g fill="none" color="black" stroke="currentColor" stroke-width="1.00" stroke-linecap="butt" stroke-linejoin="miter">
	<path stroke='black'  d='M63.6,422.4 L72.6,422.4 M575.0,422.4 L566.0,422.4  '/>	<g transform="translate(55.3,426.9)" stroke="none" fill="black" font-family="Arial" font-size="12.00"  text-anchor="end">
		<text><tspan font-family="Arial" >-25</tspan></text>
	</g>
</g>
<g fill="none" color="black" stroke="currentColor" stroke-width="1.00" stroke-linecap="butt" stroke-linejoin="miter">
	<path stroke='black'  d='M63.6,361.0 L72.6,361.0 M575.0,361.0 L566.0,361.0  '/>	<g transform="translate(55.3,365.5)" stroke="none" fill="black" font-family="Arial" font-size="12.00"  text-anchor="end">
		<text><tspan font-family="Arial" >-20</tspan></text>
	</g>
</g>
<g fill="none" color="black" stroke="currentColor" stroke-width="1.00" stroke-linecap="butt" stroke-linejoin="miter">
	<path stroke='black'  d='M63.6,299.6 L72.6,299.6 M575.0,299.6 L566.0,299.6  '/>	<g transform="translate(55.3,304.1)" stroke="none" fill="black" font-family="Arial" font-size="12.00"  text-anchor="end">
		<text><tspan font-family="Arial" >-15</tspan></text>
	</g>
</g>
<g fill="none" color="black" stroke="currentColor" stroke-width="1.00" stroke-linecap="butt" stroke-linejoin="miter">
	<path stroke='black'  d='M63.6,238.3 L72.6,238.3 M575.0,238.3 L566.0,238.3  '/>	<g transform="translate(55.3,242.8)" stroke="none" fill="black" font-family="Arial" font-size="12.00"  text-anchor="end">
		<text><tspan font-family="Arial" >-10</tspan></text>
	</g>
</g>
<g fill="none" color="black" stroke="currentColor" stroke-width="1.00" stroke-linecap="butt" stroke-linejoin="miter">
	<path stroke='black'  d='M63.6,176.9 L72.6,176.9 M575.0,176.9 L566.0,176.9  '/>	<g transform="translate(55.3,181.4)" stroke="none" fill="black" font-family="Arial" font-size="12.00"  text-anchor="end">
		<text><tspan font-family="Arial" >-5</tspan></text>
	</g>
</g>
<g fill="none" color="black" stroke="currentColor" stroke-width="1.00" stroke-linecap="butt" stroke-linejoin="miter">
	<path stroke='black'  d='M63.6,115.5 L72.6,115.5 M575.0,115.5 L566.0,115.5  '/>	<g transform="translate(55.3,120.0)" stroke="none" fill="black" font-family="Arial" font-size="12.00"  text-anchor="end">
		<text><tspan font-family="Arial" > 0</tspan></text>
	</g>
</g>
<g fill="none" color="black" stroke="currentColor" stroke-width="1.00" stroke-linecap="butt" stroke-linejoin="miter">
	<path stroke='black'  d='M63.6,54.1 L72.6,54.1 M575.0,54.1 L566.0,54.1  '/>	<g transform="translate(55.3,58.6)" stroke="none" fill="black" font-family="Arial" font-size="12.00"  text-anchor="end">
		<text><tspan font-family="Arial" > 5</tspan></text>
	</g>
</g>
<g fill="none" color="black" stroke="currentColor" stroke-width="1.00" stroke-linecap="butt" stroke-linejoin="miter">
	<path stroke='black'  d='M63.6,422.4 L63.6,413.4 M63.6,54.1 L63.6,63.1  '/>	<g transform="translate(63.6,444.9)" stroke="none" fill="black" font-family="Arial" font-size="12.00"  text-anchor="middle">
		<text><tspan font-family="Arial" > 0</tspan></text>
	</g>
</g>
<g fill="none" color="black" stroke="currentColor" stroke-width="1.00" stroke-linecap="butt" stroke-linejoin="miter">
	<path stroke='black'  d='M114.7,422.4 L114.7,413.4 M114.7,54.1 L114.7,63.1  '/>	<g transform="translate(114.7,444.9)" stroke="none" fill="black" font-family="Arial" font-size="12.00"  text-anchor="middle">
		<text><tspan font-family="Arial" > 1</tspan></text>
	</g>
</g>
<g fill="none" color="black" stroke="currentColor" stroke-width="1.00" stroke-linecap="butt" stroke-linejoin="miter">
	<path stroke='black'  d='M165.9,422.4 L165.9,413.4 M165.9,54.1 L165.9,63.1  '/>	<g transform="translate(165.9,444.9)" stroke="none" fill="black" font-family="Arial" font-size="12.00"  text-anchor="middle">
		<text><tspan font-family="Arial" > 2</tspan></text>
	</g>
</g>
<g fill="none" color="black" stroke="currentColor" stroke-width="1.00" stroke-linecap="butt" stroke-linejoin="miter">
	<path stroke='black'  d='M217.0,422.4 L217.0,413.4 M217.0,54.1 L217.0,63.1  '/>	<g transform="translate(217.0,444.9)" stroke="none" fill="black" font-family="Arial" font-size="12.00"  text-anchor="middle">
		<text><tspan font-family="Arial" > 3</tspan></text>
	</g>
</g>
<g fill="none" color="black" stroke="currentColor" stroke-width="1.00" stroke-linecap="butt" stroke-linejoin="miter">
	<path stroke='black'  d='M268.2,422.4 L268.2,413.4 M268.2,54.1 L268.2,63.1  '/>	<g transform="translate(268.2,444.9)" stroke="none" fill="black" font-family="Arial" font-size="12.00"  text-anchor="middle">
		<text><tspan font-family="Arial" > 4</tspan></text>
	</g>
</g>
<g fill="none" color="black" stroke="currentColor" stroke-width="1.00" stroke-linecap="butt" stroke-linejoin="miter">
	<path stroke='black'  d='M319.3,422.4 L319.3,413.4 M319.3,54.1 L319.3,63.1  '/>	<g transform="translate(319.3,444.9)" stroke="none" fill="black" font-family="Arial" font-size="12.00"  text-anchor="middle">
		<text><tspan font-family="Arial" > 5</tspan></text>
	</g>
</g>
<g fill="none" color="black" stroke="currentColor" stroke-width="1.00" stroke-linecap="butt" stroke-linejoin="miter">
	<path stroke='black'  d='M370.4,422.4 L370.4,413.4 M370.4,54.1 L370.4,63.1  '/>	<g transform="translate(370.4,444.9)" stroke="none" fill="black" font-family="Arial" font-size="12.00"  text-anchor="middle">
		<text><tspan font-family="Arial" > 6</tspan></text>
	</g>
</g>
<g fill="none" color="black" stroke="currentColor" stroke-width="1.00" stroke-linecap="butt" stroke-linejoin="miter">
	<path stroke='black'  d='M421.6,422.4 L421.6,413.4 M421.6,54.1 L421.6,63.1  '/>	<g transform="translate(421.6,444.9)" stroke="none" fill="black" font-family="Arial" font-size="12.00"  text-anchor="middle">
		<text><tspan font-family="Arial" > 7</tspan></text>
	</g>
</g>
<g fill="none" color="black" stroke="currentColor" stroke-width="1.00" stroke-linecap="butt" stroke-linejoin="miter">
	<path stroke='black'  d='M472.7,422.4 L472.7,413.4 M472.7,54.1 L472.7,63.1  '/>	<g transform="translate(472.7,444.9)" stroke="none" fill="black" font-family="Arial" font-size="12.00"  text-anchor="middle">
		<text><tspan font-family="Arial" > 8</tspan></text>
	</g>
</g>
<g fill="none" color="black" stroke="currentColor" stroke-width="1.00" stroke-linecap="butt" stroke-linejoin="miter">
	<path stroke='black'  d='M523.9,422.4 L523.9,413.4 M523.9,54.1 L523.9,63.1  '/>	<g transform="translate(523.9,444.9)" stroke="none" fill="black" font-family="Arial" font-size="12.00"  text-anchor="middle">
		<text><tspan font-family="Arial" > 9</tspan></text>
	</g>
</g>
<g fill="none" color="black" stroke="currentColor" stroke-width="1.00" stroke-linecap="butt" stroke-linejoin="miter">
	<path stroke='black'  d='M575.0,422.4 L575.0,413.4 M575.0,54.1 L575.0,63.1  '/>	<g transform="translate(575.0,444.9)" stroke="none" fill="black" font-family="Arial" font-size="12.00"  text-anchor="middle">
		<text><tspan font-family="Arial" > 10</tspan></text>
	</g>
</g>
<g fill="none" color="black" stroke="currentColor" stroke-width="1.00" stroke-linecap="butt" stroke-linejoin="miter">
</g>
<g fill="none" color="black" stroke="currentColor" stroke-width="1.00" stroke-linecap="butt" stroke-linejoin="miter">
	<path stroke='black'  d='M63.6,54.1 L63.6,422.4 L575.0,422.4 L575.0,54.1 L63.6,54.1 Z  '/></g>
<g fill="none" color="black" stroke="currentColor" stroke-width="1.00" stroke-linecap="butt" stroke-linejoin="miter">
	<g transform="translate(17.6,238.3) rotate(270)" stroke="none" fill="black" font-family="Arial" font-size="12.00"  text-anchor="middle">
		<text><tspan font-family="Arial" >y</tspan></text>
	</g>
</g>
<g fill="none" color="black" stroke="currentColor" stroke-width="1.00" stroke-linecap="butt" stroke-linejoin="miter">
	<g transform="translate(319.3,471.9)" stroke="none" fill="black" font-family="Arial" font-size="12.00"  text-anchor="middle">
		<text><tspan font-family="Arial" >x</tspan></text>
	</g>
</g>
<g fill="none" color="black" stroke="currentColor" stroke-width="1.00" stroke-linecap="butt" stroke-linejoin="miter">
	<g transform="translate(319.3,31.6)" stroke="none" fill="black" font-family="Arial" font-size="12.00"  text-anchor="middle">
		<text><tspan font-family="Arial" >least-squares fit of F</tspan><tspan font-family="Arial"  font-size="9.6" dy="3.60px">c</tspan><tspan font-family="Arial"  font-size="12.0" dy="-3.60px">(x)=c</tspan><tspan font-family="Arial"  font-size="9.6" dy="3.60px">0</tspan><tspan font-family="Arial"  font-size="12.0" dy="-3.60px">/x+c</tspan><tspan font-family="Arial"  font-size="9.6" dy="3.60px">1</tspan><tspan font-family="Arial"  font-size="12.0" dy="-3.60px">+c</tspan><tspan font-family="Arial"  font-size="9.6" dy="3.60px">2</tspan><tspan font-family="Arial"  font-size="12.0" dy="-3.60px">*x to some data. with uncertainties from switch(2)</tspan></text>
	</g>
</g>
	<g id="gnuplot_plot_1" ><title>data</title>
<g fill="none" color="black" stroke="currentColor" stroke-width="1.00" stroke-linecap="butt" stroke-linejoin="miter">
	<g transform="translate(507.9,354.9)" stroke="none" fill="black" font-family="Arial" font-size="12.00"  text-anchor="end">
		<text><tspan font-family="Arial" >data</tspan></text>
	</g>
</g>
<g fill="none" color="black" stroke="currentColor" stroke-width="1.00" stroke-linecap="butt" stroke-linejoin="miter">
	<path stroke='rgb(148,   0, 211)'  d='M516.2,350.4 L558.4,350.4 M516.2,345.9 L516.2,354.9 M558.4,345.9 L558.4,354.9 M68.7,318.5 L68.7,293.0
		M64.2,318.5 L73.2,318.5 M64.2,293.0 L73.2,293.0 M131.6,118.8 L131.6,104.3 M127.1,118.8 L136.1,118.8
		M127.1,104.3 L136.1,104.3 M194.0,97.5 L194.0,73.3 M189.5,97.5 L198.5,97.5 M189.5,73.3 L198.5,73.3
		M256.9,94.0 L256.9,69.5 M252.4,94.0 L261.4,94.0 M252.4,69.5 L261.4,69.5 M319.3,101.2 L319.3,74.0
		M314.8,101.2 L323.8,101.2 M314.8,74.0 L323.8,74.0 M381.7,103.8 L381.7,94.0 M377.2,103.8 L386.2,103.8
		M377.2,94.0 L386.2,94.0 M444.6,120.1 L444.6,107.0 M440.1,120.1 L449.1,120.1 M440.1,107.0 L449.1,107.0
		M507.5,142.5 L507.5,118.7 M503.0,142.5 L512.0,142.5 M503.0,118.7 L512.0,118.7 M569.9,155.1 L569.9,143.4
		M565.4,155.1 L574.4,155.1 M565.4,143.4 L574.4,143.4  '/>	<use xlink:href='#gpPt0' transform='translate(68.7,305.8) scale(4.50)' color='rgb(148,   0, 211)'/>
	<use xlink:href='#gpPt0' transform='translate(131.6,111.6) scale(4.50)' color='rgb(148,   0, 211)'/>
	<use xlink:href='#gpPt0' transform='translate(194.0,85.4) scale(4.50)' color='rgb(148,   0, 211)'/>
	<use xlink:href='#gpPt0' transform='translate(256.9,81.7) scale(4.50)' color='rgb(148,   0, 211)'/>
	<use xlink:href='#gpPt0' transform='translate(319.3,87.6) scale(4.50)' color='rgb(148,   0, 211)'/>
	<use xlink:href='#gpPt0' transform='translate(381.7,98.9) scale(4.50)' color='rgb(148,   0, 211)'/>
	<use xlink:href='#gpPt0' transform='translate(444.6,113.6) scale(4.50)' color='rgb(148,   0, 211)'/>
	<use xlink:href='#gpPt0' transform='translate(507.5,130.6) scale(4.50)' color='rgb(148,   0, 211)'/>
	<use xlink:href='#gpPt0' transform='translate(569.9,149.2) scale(4.50)' color='rgb(148,   0, 211)'/>
	<use xlink:href='#gpPt0' transform='translate(537.3,350.4) scale(4.50)' color='rgb(148,   0, 211)'/>
</g>
	</g>
	<g id="gnuplot_plot_2" ><title>Fc(x)</title>
<g fill="none" color="black" stroke="currentColor" stroke-width="1.00" stroke-linecap="butt" stroke-linejoin="miter">
	<g transform="translate(507.9,372.9)" stroke="none" fill="black" font-family="Arial" font-size="12.00"  text-anchor="end">
		<text><tspan font-family="Arial" >F</tspan><tspan font-family="Arial"  font-size="9.6" dy="3.60px">c</tspan><tspan font-family="Arial"  font-size="12.0" dy="-3.60px">(x)</tspan></text>
	</g>
</g>
<g fill="none" color="black" stroke="currentColor" stroke-width="1.00" stroke-linecap="butt" stroke-linejoin="miter">
	<path stroke='rgb(  0, 158, 115)'  d='M516.2,368.4 L558.4,368.4 M65.9,372.4 L71.5,269.3 L77.1,225.7 L82.6,198.4 L88.2,178.9 L93.8,163.9
		L99.3,151.9 L104.9,142.1 L110.5,133.8 L116.0,126.7 L121.6,120.7 L127.2,115.4 L132.8,110.9 L138.3,106.8
		L143.9,103.3 L149.5,100.2 L155.0,97.4 L160.6,95.0 L166.2,92.8 L171.7,90.9 L177.3,89.3 L182.9,87.8
		L188.4,86.5 L194.0,85.5 L199.6,84.5 L205.1,83.7 L210.7,83.1 L216.3,82.5 L221.8,82.1 L227.4,81.8
		L233.0,81.6 L238.6,81.5 L244.1,81.5 L249.7,81.5 L255.3,81.7 L260.8,81.9 L266.4,82.1 L272.0,82.5
		L277.5,82.9 L283.1,83.3 L288.7,83.9 L294.2,84.4 L299.8,85.0 L305.4,85.7 L310.9,86.4 L316.5,87.2
		L322.1,88.0 L327.7,88.8 L333.2,89.7 L338.8,90.6 L344.4,91.6 L349.9,92.6 L355.5,93.6 L361.1,94.6
		L366.6,95.7 L372.2,96.8 L377.8,98.0 L383.3,99.1 L388.9,100.3 L394.5,101.5 L400.0,102.8 L405.6,104.0
		L411.2,105.3 L416.8,106.6 L422.3,108.0 L427.9,109.3 L433.5,110.7 L439.0,112.1 L444.6,113.5 L450.2,114.9
		L455.7,116.4 L461.3,117.9 L466.9,119.3 L472.4,120.8 L478.0,122.4 L483.6,123.9 L489.1,125.4 L494.7,127.0
		L500.3,128.6 L505.8,130.2 L511.4,131.8 L517.0,133.4 L522.6,135.0 L528.1,136.7 L533.7,138.3 L539.3,140.0
		L544.8,141.7 L550.4,143.4 L556.0,145.1 L561.5,146.8 L567.1,148.5 L572.7,150.2  '/></g>
	</g>
	<g id="gnuplot_plot_3" ><title>FC(x)c0+dc2</title>
<g fill="none" color="black" stroke="currentColor" stroke-width="1.00" stroke-linecap="butt" stroke-linejoin="miter">
	<g transform="translate(507.9,390.9)" stroke="none" fill="black" font-family="Arial" font-size="12.00"  text-anchor="end">
		<text><tspan font-family="Arial" >F</tspan><tspan font-family="Arial"  font-size="9.6" dy="3.60px">C</tspan><tspan font-family="Arial"  font-size="12.0" dy="-3.60px">(x)</tspan><tspan font-family="Arial"  font-size="9.6" dy="3.60px">c0+dc2</tspan><tspan font-size="12.0" dy="-3.60"></tspan></text>
	</g>
</g>
<g fill="none" color="black" stroke="currentColor" stroke-width="1.00" stroke-linecap="butt" stroke-linejoin="miter">
	<path stroke='rgb( 86, 180, 233)'  d='M516.2,386.4 L558.4,386.4 M65.9,372.3 L71.5,269.0 L77.1,225.3 L82.6,197.8 L88.2,178.0 L93.8,162.9
		L99.3,150.7 L104.9,140.6 L110.5,132.2 L116.0,124.9 L121.6,118.7 L127.2,113.2 L132.8,108.5 L138.3,104.2
		L143.9,100.5 L149.5,97.2 L155.0,94.2 L160.6,91.6 L166.2,89.3 L171.7,87.2 L177.3,85.3 L182.9,83.7
		L188.4,82.2 L194.0,80.9 L199.6,79.8 L205.1,78.8 L210.7,78.0 L216.3,77.3 L221.8,76.6 L227.4,76.1
		L233.0,75.7 L238.6,75.4 L244.1,75.2 L249.7,75.1 L255.3,75.0 L260.8,75.0 L266.4,75.1 L272.0,75.3
		L277.5,75.5 L283.1,75.7 L288.7,76.1 L294.2,76.4 L299.8,76.9 L305.4,77.3 L310.9,77.9 L316.5,78.4
		L322.1,79.0 L327.7,79.7 L333.2,80.4 L338.8,81.1 L344.4,81.9 L349.9,82.7 L355.5,83.5 L361.1,84.3
		L366.6,85.2 L372.2,86.1 L377.8,87.1 L383.3,88.1 L388.9,89.1 L394.5,90.1 L400.0,91.1 L405.6,92.2
		L411.2,93.3 L416.8,94.4 L422.3,95.6 L427.9,96.7 L433.5,97.9 L439.0,99.1 L444.6,100.3 L450.2,101.6
		L455.7,102.8 L461.3,104.1 L466.9,105.4 L472.4,106.7 L478.0,108.0 L483.6,109.3 L489.1,110.7 L494.7,112.1
		L500.3,113.4 L505.8,114.8 L511.4,116.3 L517.0,117.7 L522.6,119.1 L528.1,120.6 L533.7,122.0 L539.3,123.5
		L544.8,125.0 L550.4,126.5 L556.0,128.0 L561.5,129.5 L567.1,131.0 L572.7,132.6  '/></g>
	</g>
	<g id="gnuplot_plot_4" ><title>FC(x)c0-dc2</title>
<g fill="none" color="black" stroke="currentColor" stroke-width="1.00" stroke-linecap="butt" stroke-linejoin="miter">
	<g transform="translate(507.9,408.9)" stroke="none" fill="black" font-family="Arial" font-size="12.00"  text-anchor="end">
		<text><tspan font-family="Arial" >F</tspan><tspan font-family="Arial"  font-size="9.6" dy="3.60px">C</tspan><tspan font-family="Arial"  font-size="12.0" dy="-3.60px">(x)</tspan><tspan font-family="Arial"  font-size="9.6" dy="3.60px">c0-dc2</tspan><tspan font-size="12.0" dy="-3.60"></tspan></text>
	</g>
</g>
<g fill="none" color="black" stroke="currentColor" stroke-width="1.00" stroke-linecap="butt" stroke-linejoin="miter">
	<path stroke='rgb(230, 159,   0)'  d='M516.2,404.4 L558.4,404.4 M65.9,372.5 L71.5,269.6 L77.1,226.2 L82.6,199.1 L88.2,179.7 L93.8,164.9
		L99.3,153.2 L104.9,143.5 L110.5,135.4 L116.0,128.6 L121.6,122.7 L127.2,117.6 L132.8,113.2 L138.3,109.4
		L143.9,106.1 L149.5,103.1 L155.0,100.6 L160.6,98.3 L166.2,96.4 L171.7,94.7 L177.3,93.2 L182.9,91.9
		L188.4,90.9 L194.0,90.0 L199.6,89.2 L205.1,88.6 L210.7,88.2 L216.3,87.8 L221.8,87.6 L227.4,87.5
		L233.0,87.5 L238.6,87.6 L244.1,87.7 L249.7,88.0 L255.3,88.3 L260.8,88.7 L266.4,89.2 L272.0,89.7
		L277.5,90.3 L283.1,90.9 L288.7,91.7 L294.2,92.4 L299.8,93.2 L305.4,94.1 L310.9,95.0 L316.5,96.0
		L322.1,96.9 L327.7,98.0 L333.2,99.1 L338.8,100.2 L344.4,101.3 L349.9,102.5 L355.5,103.7 L361.1,104.9
		L366.6,106.2 L372.2,107.5 L377.8,108.8 L383.3,110.2 L388.9,111.6 L394.5,113.0 L400.0,114.4 L405.6,115.9
		L411.2,117.4 L416.8,118.9 L422.3,120.4 L427.9,122.0 L433.5,123.5 L439.0,125.1 L444.6,126.7 L450.2,128.3
		L455.7,130.0 L461.3,131.6 L466.9,133.3 L472.4,135.0 L478.0,136.7 L483.6,138.4 L489.1,140.2 L494.7,141.9
		L500.3,143.7 L505.8,145.5 L511.4,147.3 L517.0,149.1 L522.6,150.9 L528.1,152.7 L533.7,154.6 L539.3,156.5
		L544.8,158.3 L550.4,160.2 L556.0,162.1 L561.5,164.0 L567.1,165.9 L572.7,167.9  '/></g>
	</g>
<g fill="none" color="#FFFFFF" stroke="rgb(230, 159,   0)" stroke-width="2.00" stroke-linecap="butt" stroke-linejoin="miter">
</g>
<g fill="none" color="black" stroke="currentColor" stroke-width="2.00" stroke-linecap="butt" stroke-linejoin="miter">
</g>
<g fill="none" color="black" stroke="black" stroke-width="1.00" stroke-linecap="butt" stroke-linejoin="miter">
</g>
<g fill="none" color="black" stroke="currentColor" stroke-width="1.00" stroke-linecap="butt" stroke-linejoin="miter">
	<path stroke='black'  d='M63.6,54.1 L63.6,422.4 L575.0,422.4 L575.0,54.1 L63.6,54.1 Z  '/></g>
<g fill="none" color="black" stroke="currentColor" stroke-width="1.00" stroke-linecap="butt" stroke-linejoin="miter">
</g>
</g>
</svg>

