-1 0.353227
-0.894737 0.309802
-0.789474 0.124837
-0.684211 -0.179854
-0.578947 -0.521775
-0.473684 -0.778547
-0.368421 -0.834212
-0.263158 -0.632605
-0.157895 -0.211597
-0.0526316 0.301971
0.0526316 0.738546
0.157895 0.953842
0.263158 0.886951
0.368421 0.581375
0.473684 0.160599
0.578947 -0.227654
0.684211 -0.47053
0.789474 -0.526107
0.894737 -0.424543
1 -0.240462


-1 0.353227
-0.984375 0.356293
-0.96875 0.356303
-0.953125 0.353166
-0.9375 0.346809
-0.921875 0.337175
-0.90625 0.324228
-0.890625 0.307951
-0.875 0.288351
-0.859375 0.265455
-0.84375 0.239317
-0.828125 0.210015
-0.8125 0.177654
-0.796875 0.142365
-0.78125 0.104307
-0.765625 0.0636636
-0.75 0.0206491
-0.734375 -0.0244972
-0.71875 -0.0715094
-0.703125 -0.120096
-0.6875 -0.169942
-0.671875 -0.220709
-0.65625 -0.272039
-0.640625 -0.323555
-0.625 -0.374863
-0.609375 -0.425558
-0.59375 -0.475223
-0.578125 -0.523436
-0.5625 -0.569771
-0.546875 -0.613803
-0.53125 -0.655113
-0.515625 -0.693289
-0.5 -0.727935
-0.484375 -0.75867
-0.46875 -0.785137
-0.453125 -0.807003
-0.4375 -0.823967
-0.421875 -0.835761
-0.40625 -0.842154
-0.390625 -0.842959
-0.375 -0.838029
-0.359375 -0.827268
-0.34375 -0.810625
-0.328125 -0.788102
-0.3125 -0.759752
-0.296875 -0.725679
-0.28125 -0.686042
-0.265625 -0.64105
-0.25 -0.590964
-0.234375 -0.536091
-0.21875 -0.476788
-0.203125 -0.413454
-0.1875 -0.346529
-0.171875 -0.27649
-0.15625 -0.203845
-0.140625 -0.12913
-0.125 -0.0529035
-0.109375 0.024259
-0.09375 0.10177
-0.078125 0.179037
-0.0625 0.255467
-0.046875 0.330472
-0.03125 0.403476
-0.015625 0.473921
0 0.541268
0.015625 0.605008
0.03125 0.664664
0.046875 0.719795
0.0625 0.769998
0.078125 0.814917
0.09375 0.854242
0.109375 0.887712
0.125 0.915116
0.140625 0.936297
0.15625 0.951152
0.171875 0.959629
0.1875 0.961733
0.203125 0.957519
0.21875 0.947094
0.234375 0.930616
0.25 0.908289
0.265625 0.880362
0.28125 0.847129
0.296875 0.808918
0.3125 0.766097
0.328125 0.719062
0.34375 0.668239
0.359375 0.614076
0.375 0.55704
0.390625 0.497615
0.40625 0.436293
0.421875 0.373572
0.4375 0.309953
0.453125 0.245933
0.46875 0.182004
0.484375 0.118644
0.5 0.0563188
0.515625 -0.00452681
0.53125 -0.0634692
0.546875 -0.120111
0.5625 -0.174082
0.578125 -0.225046
0.59375 -0.272699
0.609375 -0.316774
0.625 -0.357042
0.640625 -0.393311
0.65625 -0.425432
0.671875 -0.453295
0.6875 -0.476833
0.703125 -0.496019
0.71875 -0.510865
0.734375 -0.521424
0.75 -0.527787
0.765625 -0.530081
0.78125 -0.528465
0.796875 -0.523133
0.8125 -0.514304
0.828125 -0.502226
0.84375 -0.487168
0.859375 -0.469417
0.875 -0.449276
0.890625 -0.42706
0.90625 -0.403089
0.921875 -0.377691
0.9375 -0.35119
0.953125 -0.323908
0.96875 -0.296159
0.984375 -0.268247
1 -0.240462
